﻿КЛЮЧ | ФИО | ЗАРПЛАТА
0 | Иван Климко | 3961

1 | Петр Менделеев | 3250

2 | Егор Иванов | 3314

3 | Геннадий Менделеев | 4675

4 | Никита Череззаборногузадирайко | 3146

5 | Никита Тарасов | 3266

6 | Сергей Камашня | 3141

7 | Герасим Коноплянко | 4288

8 | Геннадий Менделеев | 4931

9 | Дмитрий Атанасов | 4616

10 | Никита Иванов | 3780

11 | Артем Камашня | 3503

12 | Антон Камашня | 3132

13 | Петр Атанасов | 3880

14 | Василий Иванов | 3875

15 | Егор Коваленко | 3889

16 | Сергей Шевченко | 3780

17 | Герасим Погонирук | 3189

18 | Иван Тарасов | 4419

19 | Никита Шевченко | 3036

20 | Антон Череззаборногузадирайко | 4117

21 | Василий Перекатиполе | 4364

22 | Геннадий Калина | 4761

23 | Герасим Менделеев | 3278

24 | Андрей Гусько | 3547

25 | Егор Атанасов | 4852

26 | Максим Пулько | 3946

27 | Кирилл Менделеев | 3367

28 | Геннадий Моряк | 4281

29 | Василий Климко | 4654

30 | Владислав Бочаров | 3989

31 | Дмитрий Перекатиполе | 4727

32 | Никита Коноплянко | 3939

33 | Петр Романов | 4641

34 | Владислав Калина | 4137

35 | Сергей Менделеев | 4697

36 | Герасим Моряк | 3916

37 | Герасим Череззаборногузадирайко | 3977

38 | Владислав Череззаборногузадирайко | 4754

39 | Артем Тарасов | 4026

40 | Дмитрий Романов | 4454

41 | Дмитрий Шевченко | 3804

42 | Егор Иванов | 4961

43 | Артем Менделеев | 4008

44 | Геннадий Атанасов | 4287

45 | Иван Коноплянко | 3598

46 | Егор Романов | 3641

47 | Герасим Атанасов | 4244

48 | Артем Камашня | 4371

49 | Дмитрий Гусько | 4854

50 | Иннокентий Гусько | 3058

51 | Иннокентий Менделеев | 3028

52 | Андрей Гусько | 3332

53 | Антон Череззаборногузадирайко | 4435

54 | Никита Калина | 3651

55 | Иннокентий Бочаров | 3357

56 | Никита Бородач | 4362

57 | Владислав Камашня | 4528

58 | Максим Коваленко | 4354

59 | Андрей Климко | 4042

60 | Петр Череззаборногузадирайко | 4032

61 | Дмитрий Калина | 3484

62 | Кирилл Атанасов | 4474

63 | Егор Перекатиполе | 3894

64 | Антон Калина | 4119

65 | Егор Тарасов | 3127

66 | Василий Калина | 3862

67 | Кирилл Романов | 4219

68 | Сергей Калина | 4494

69 | Сергей Камашня | 3928

70 | Василий Коноплянко | 4650

71 | Егор Атанасов | 4937

72 | Максим Пулько | 4973

73 | Андрей Атанасов | 4655

74 | Геннадий Коваленко | 3668

75 | Максим Калина | 3621

76 | Максим Перекатиполе | 3652

77 | Егор Пулько | 3539

78 | Андрей Коваленко | 3954

79 | Ярослав Пулько | 3030

80 | Кирилл Коваленко | 4471

81 | Сергей Шевченко | 4139

82 | Егор Атанасов | 4996

83 | Егор Калина | 3217

84 | Андрей Коваленко | 4873

85 | Егор Моряк | 4890

86 | Сергей Иванов | 4927

87 | Геннадий Моряк | 3347

88 | Антон Менделеев | 3360

89 | Владислав Перекатиполе | 3481

90 | Кирилл Шевченко | 3013

91 | Иннокентий Перекатиполе | 3535

92 | Андрей Романов | 4846

93 | Петр Череззаборногузадирайко | 4913

94 | Василий Череззаборногузадирайко | 3376

95 | Максим Гусько | 4189

96 | Василий Атанасов | 3289

97 | Владислав Череззаборногузадирайко | 4592

98 | Дмитрий Моряк | 3301

99 | Владислав Резник | 4138

100 | Артем Моряк | 4866

101 | Петр Резник | 3213

102 | Андрей Резник | 4250

103 | Иван Гусько | 4792

104 | Дмитрий Гусько | 3798

105 | Дмитрий Резник | 3894

106 | Иннокентий Тарасов | 3372

107 | Владислав Коваленко | 3137

108 | Андрей Коноплянко | 4327

109 | Максим Тарасов | 4059

110 | Андрей Гусько | 3067

111 | Артем Погонирук | 4090

112 | Дмитрий Перекатиполе | 4025

113 | Андрей Резник | 3864

114 | Иннокентий Климко | 4948

115 | Сергей Гусько | 3239

116 | Артем Иванов | 4869

117 | Иван Перекатиполе | 3428

118 | Артем Пулько | 4690

119 | Никита Климко | 3281

120 | Геннадий Бородач | 3369

121 | Андрей Перекатиполе | 4965

122 | Никита Климко | 3272

123 | Никита Коноплянко | 4137

124 | Ярослав Тарасов | 4610

125 | Петр Череззаборногузадирайко | 4114

126 | Андрей Пулько | 3898

127 | Владислав Пулько | 4752

128 | Егор Калина | 4906

129 | Герасим Коноплянко | 4141

130 | Иван Романов | 4787

131 | Артем Череззаборногузадирайко | 3448

132 | Сергей Бородач | 3224

133 | Иннокентий Погонирук | 4684

134 | Иннокентий Гусько | 3121

135 | Артем Камашня | 4344

136 | Артем Череззаборногузадирайко | 3376

137 | Сергей Камашня | 4626

138 | Иван Бородач | 3155

139 | Василий Гусько | 3277

140 | Дмитрий Иванов | 4393

141 | Владислав Романов | 4649

142 | Иван Перекатиполе | 3530

143 | Владислав Гусько | 4482

144 | Геннадий Резник | 3925

145 | Егор Перекатиполе | 3541

146 | Герасим Коваленко | 4288

147 | Сергей Калина | 3684

148 | Артем Калина | 3778

149 | Андрей Климко | 4480

150 | Антон Тарасов | 3748

151 | Иннокентий Коноплянко | 3684

152 | Антон Калина | 3776

153 | Сергей Климко | 3414

154 | Артем Пулько | 3244

155 | Геннадий Пулько | 4333

156 | Василий Моряк | 3676

157 | Герасим Атанасов | 3543

158 | Кирилл Менделеев | 4264

159 | Артем Романов | 4485

160 | Геннадий Перекатиполе | 4763

161 | Кирилл Калина | 4135

162 | Артем Атанасов | 3282

163 | Антон Атанасов | 3284

164 | Ярослав Перекатиполе | 4074

165 | Геннадий Бородач | 4165

166 | Максим Тарасов | 4137

167 | Петр Менделеев | 4193

168 | Артем Бочаров | 3891

169 | Андрей Атанасов | 3427

170 | Петр Камашня | 3470

171 | Егор Пулько | 3192

172 | Василий Бородач | 3786

173 | Владислав Моряк | 3743

174 | Кирилл Коваленко | 4244

175 | Максим Тарасов | 4827

176 | Петр Моряк | 4748

177 | Дмитрий Резник | 3496

178 | Антон Менделеев | 4730

179 | Сергей Резник | 3190

180 | Антон Шевченко | 4983

181 | Ярослав Калина | 4341

182 | Ярослав Коваленко | 4557

183 | Геннадий Резник | 4984

184 | Максим Климко | 4709

185 | Максим Романов | 3998

186 | Иннокентий Коваленко | 3830

187 | Владислав Погонирук | 3844

188 | Василий Климко | 4313

189 | Иннокентий Атанасов | 3176

190 | Максим Иванов | 4516

191 | Василий Калина | 4630

192 | Артем Перекатиполе | 4641

193 | Иннокентий Шевченко | 4373

194 | Антон Шевченко | 4890

195 | Никита Бородач | 3938

196 | Артем Коноплянко | 4030

197 | Артем Бочаров | 4836

198 | Иван Перекатиполе | 4795

199 | Владислав Перекатиполе | 4497

200 | Дмитрий Тарасов | 4533

201 | Иван Коваленко | 3142

202 | Максим Бородач | 3463

203 | Дмитрий Пулько | 4197

204 | Иван Иванов | 4832

205 | Петр Погонирук | 3147

206 | Кирилл Атанасов | 4602

207 | Максим Перекатиполе | 3986

208 | Владислав Бородач | 4460

209 | Никита Череззаборногузадирайко | 4687

210 | Ярослав Пулько | 3021

211 | Андрей Тарасов | 3738

212 | Ярослав Калина | 3168

213 | Никита Череззаборногузадирайко | 4936

214 | Сергей Погонирук | 3321

215 | Ярослав Климко | 3574

216 | Дмитрий Коноплянко | 3383

217 | Никита Моряк | 3259

218 | Иннокентий Пулько | 3652

219 | Сергей Резник | 3688

220 | Василий Погонирук | 3545

221 | Артем Резник | 3014

222 | Владислав Череззаборногузадирайко | 3171

223 | Владислав Пулько | 4906

224 | Иннокентий Череззаборногузадирайко | 4619

225 | Никита Тарасов | 3479

226 | Василий Климко | 3355

227 | Геннадий Пулько | 4335

228 | Иван Моряк | 4433

229 | Никита Резник | 3220

230 | Дмитрий Череззаборногузадирайко | 3651

231 | Петр Гусько | 3508

232 | Иван Пулько | 3465

233 | Антон Бочаров | 3162

234 | Максим Атанасов | 3283

235 | Сергей Пулько | 3981

236 | Василий Резник | 4754

237 | Андрей Тарасов | 3924

238 | Антон Бородач | 4112

239 | Егор Менделеев | 3055

240 | Сергей Менделеев | 3964

241 | Иннокентий Гусько | 3325

242 | Егор Коваленко | 3138

243 | Владислав Резник | 3199

244 | Дмитрий Романов | 3654

245 | Андрей Коваленко | 3765

246 | Кирилл Калина | 3518

247 | Максим Перекатиполе | 3019

248 | Максим Коноплянко | 4409

249 | Никита Перекатиполе | 4270

250 | Иван Моряк | 3227

251 | Максим Бородач | 4243

252 | Егор Коваленко | 4903

253 | Иннокентий Череззаборногузадирайко | 4170

254 | Геннадий Камашня | 4953

255 | Герасим Моряк | 4524

256 | Антон Моряк | 4312

257 | Антон Моряк | 3643

258 | Герасим Моряк | 3292

259 | Кирилл Менделеев | 4094

260 | Геннадий Камашня | 4351

261 | Геннадий Бородач | 3093

262 | Иннокентий Пулько | 3631

263 | Иван Атанасов | 3032

264 | Геннадий Гусько | 4606

265 | Иван Пулько | 4592

266 | Дмитрий Атанасов | 4753

267 | Иннокентий Менделеев | 4006

268 | Иннокентий Гусько | 3023

269 | Герасим Калина | 4596

270 | Кирилл Резник | 3966

271 | Артем Гусько | 4693

272 | Ярослав Коноплянко | 4814

273 | Ярослав Камашня | 3555

274 | Геннадий Калина | 4144

275 | Егор Менделеев | 4063

276 | Кирилл Моряк | 3521

277 | Василий Калина | 3573

278 | Иван Гусько | 3070

279 | Антон Атанасов | 3665

280 | Дмитрий Романов | 3730

281 | Кирилл Коваленко | 3741

282 | Владислав Иванов | 3052

283 | Иннокентий Камашня | 4632

284 | Ярослав Резник | 4329

285 | Егор Атанасов | 3598

286 | Ярослав Бочаров | 4565

287 | Кирилл Шевченко | 3685

288 | Владислав Резник | 4374

289 | Максим Менделеев | 3010

290 | Герасим Менделеев | 4064

291 | Владислав Бородач | 4194

292 | Ярослав Тарасов | 3399

293 | Максим Резник | 4430

294 | Кирилл Перекатиполе | 3658

295 | Геннадий Атанасов | 3673

296 | Егор Моряк | 3038

297 | Петр Коваленко | 3233

298 | Владислав Перекатиполе | 4840

299 | Дмитрий Коноплянко | 3208

300 | Иван Бочаров | 3586

301 | Дмитрий Резник | 3057

302 | Сергей Бочаров | 3414

303 | Андрей Климко | 4135

304 | Андрей Менделеев | 3463

305 | Андрей Коноплянко | 4424

306 | Дмитрий Моряк | 4329

307 | Василий Перекатиполе | 4324

308 | Иннокентий Моряк | 3989

309 | Геннадий Иванов | 3680

310 | Иван Бородач | 4897

311 | Андрей Гусько | 4541

312 | Геннадий Атанасов | 3833

313 | Василий Романов | 3292

314 | Антон Перекатиполе | 3771

315 | Геннадий Череззаборногузадирайко | 4024

316 | Ярослав Атанасов | 4161

317 | Максим Иванов | 4772

318 | Геннадий Бочаров | 4524

319 | Егор Иванов | 3139

320 | Владислав Бородач | 3581

321 | Никита Погонирук | 4592

322 | Егор Иванов | 3423

323 | Геннадий Череззаборногузадирайко | 3978

324 | Василий Менделеев | 4867

325 | Кирилл Коваленко | 3039

326 | Сергей Гусько | 3877

327 | Иннокентий Гусько | 4082

328 | Петр Атанасов | 4761

329 | Андрей Климко | 3370

330 | Дмитрий Камашня | 3899

331 | Василий Камашня | 3582

332 | Никита Шевченко | 3328

333 | Егор Пулько | 4265

334 | Василий Калина | 4675

335 | Андрей Тарасов | 3592

336 | Иннокентий Тарасов | 3222

337 | Петр Погонирук | 4001

338 | Егор Перекатиполе | 3676

339 | Петр Резник | 4842

340 | Ярослав Перекатиполе | 3697

341 | Дмитрий Атанасов | 4707

342 | Дмитрий Тарасов | 4891

343 | Егор Климко | 4918

344 | Никита Климко | 4402

345 | Герасим Климко | 3212

346 | Иван Климко | 4114

347 | Владислав Резник | 4467

348 | Андрей Шевченко | 3873

349 | Иннокентий Менделеев | 3431

350 | Иннокентий Резник | 3310

351 | Сергей Климко | 3553

352 | Сергей Шевченко | 4943

353 | Иннокентий Моряк | 4925

354 | Василий Бочаров | 3518

355 | Антон Бородач | 4334

356 | Герасим Пулько | 4737

357 | Максим Иванов | 3878

358 | Артем Бочаров | 3894

359 | Егор Коноплянко | 3372

360 | Геннадий Моряк | 3466

361 | Петр Климко | 4112

362 | Герасим Череззаборногузадирайко | 3026

363 | Геннадий Гусько | 3816

364 | Антон Менделеев | 4232

365 | Егор Коваленко | 4597

366 | Кирилл Тарасов | 3759

367 | Герасим Резник | 4781

368 | Василий Менделеев | 3121

369 | Петр Бородач | 3684

370 | Никита Климко | 3642

371 | Герасим Перекатиполе | 4922

372 | Петр Череззаборногузадирайко | 4242

373 | Иван Бочаров | 3547

374 | Иван Погонирук | 3607

375 | Геннадий Моряк | 3651

376 | Герасим Камашня | 3195

377 | Иван Резник | 3061

378 | Герасим Череззаборногузадирайко | 4883

379 | Василий Погонирук | 4937

380 | Кирилл Моряк | 4466

381 | Иван Перекатиполе | 4703

382 | Андрей Бочаров | 3306

383 | Иван Бородач | 4225

384 | Максим Камашня | 4146

385 | Андрей Резник | 4548

386 | Владислав Бородач | 4245

387 | Петр Бородач | 3220

388 | Сергей Романов | 4059

389 | Сергей Коноплянко | 4838

390 | Дмитрий Погонирук | 3475

391 | Иван Коваленко | 3522

392 | Владислав Коноплянко | 4559

393 | Геннадий Погонирук | 4499

394 | Антон Романов | 4808

395 | Кирилл Атанасов | 3735

396 | Геннадий Менделеев | 4065

397 | Антон Камашня | 3993

398 | Василий Камашня | 3388

399 | Егор Калина | 3828

400 | Василий Камашня | 3738

401 | Максим Череззаборногузадирайко | 3953

402 | Артем Гусько | 4130

403 | Василий Перекатиполе | 3262

404 | Иннокентий Резник | 4024

405 | Никита Перекатиполе | 4449

406 | Максим Камашня | 4420

407 | Антон Пулько | 3558

408 | Артем Бородач | 4265

409 | Петр Бочаров | 3891

410 | Андрей Тарасов | 4114

411 | Артем Резник | 4156

412 | Артем Тарасов | 4067

413 | Геннадий Резник | 4891

414 | Герасим Резник | 3269

415 | Артем Романов | 4238

416 | Иннокентий Атанасов | 3397

417 | Геннадий Калина | 4333

418 | Иван Романов | 4925

419 | Андрей Пулько | 4564

420 | Никита Череззаборногузадирайко | 3437

421 | Антон Коваленко | 4296

422 | Владислав Череззаборногузадирайко | 3012

423 | Ярослав Атанасов | 4246

424 | Максим Камашня | 4300

425 | Петр Погонирук | 4375

426 | Антон Коноплянко | 4358

427 | Дмитрий Камашня | 4665

428 | Сергей Перекатиполе | 4000

429 | Ярослав Климко | 4938

430 | Егор Шевченко | 3182

431 | Петр Перекатиполе | 3950

432 | Петр Климко | 4800

433 | Кирилл Пулько | 4089

434 | Егор Моряк | 4961

435 | Владислав Шевченко | 4277

436 | Дмитрий Тарасов | 4600

437 | Сергей Тарасов | 4724

438 | Андрей Пулько | 4756

439 | Артем Бородач | 4294

440 | Антон Климко | 4932

441 | Дмитрий Бочаров | 3404

442 | Владислав Калина | 3389

443 | Антон Иванов | 4353

444 | Герасим Климко | 3316

445 | Антон Погонирук | 4411

446 | Никита Климко | 3638

447 | Никита Бородач | 4445

448 | Антон Бочаров | 3690

449 | Максим Череззаборногузадирайко | 4505

450 | Егор Бочаров | 4620

451 | Сергей Бочаров | 3286

452 | Владислав Перекатиполе | 4464

453 | Герасим Иванов | 4677

454 | Геннадий Пулько | 4803

455 | Антон Атанасов | 3574

456 | Иван Коноплянко | 3861

457 | Антон Гусько | 3402

458 | Василий Шевченко | 4619

459 | Сергей Бородач | 4956

460 | Никита Бочаров | 4582

461 | Геннадий Перекатиполе | 4393

462 | Никита Гусько | 3638

463 | Дмитрий Перекатиполе | 4646

464 | Иннокентий Моряк | 4256

465 | Кирилл Калина | 3064

466 | Герасим Иванов | 4704

467 | Дмитрий Гусько | 4358

468 | Василий Калина | 4614

469 | Егор Тарасов | 3104

470 | Василий Бочаров | 4418

471 | Петр Тарасов | 4479

472 | Дмитрий Иванов | 3527

473 | Максим Шевченко | 4907

474 | Иннокентий Климко | 3826

475 | Егор Романов | 3919

476 | Владислав Пулько | 4739

477 | Герасим Калина | 4642

478 | Антон Камашня | 4556

479 | Андрей Резник | 3306

480 | Ярослав Шевченко | 4218

481 | Сергей Климко | 3441

482 | Андрей Коваленко | 3304

483 | Ярослав Калина | 3829

484 | Герасим Череззаборногузадирайко | 4578

485 | Ярослав Моряк | 4672

486 | Сергей Менделеев | 3452

487 | Василий Иванов | 3155

488 | Максим Перекатиполе | 4825

489 | Ярослав Череззаборногузадирайко | 3244

490 | Иннокентий Тарасов | 4763

491 | Андрей Бочаров | 4996

492 | Василий Менделеев | 3013

493 | Максим Атанасов | 4957

494 | Василий Климко | 3827

495 | Геннадий Иванов | 4612

496 | Дмитрий Коваленко | 4419

497 | Иннокентий Пулько | 3813

498 | Ярослав Гусько | 3445

499 | Владислав Моряк | 3251

500 | Василий Коваленко | 4184

501 | Дмитрий Тарасов | 3996

502 | Владислав Климко | 3600

503 | Герасим Перекатиполе | 3778

504 | Никита Моряк | 3438

505 | Сергей Иванов | 3700

506 | Иван Менделеев | 4093

507 | Андрей Бородач | 3801

508 | Геннадий Иванов | 3178

509 | Кирилл Романов | 4548

510 | Герасим Пулько | 4231

511 | Никита Бородач | 3537

512 | Артем Шевченко | 4514

513 | Ярослав Тарасов | 3701

514 | Кирилл Коваленко | 4344

515 | Василий Резник | 4546

516 | Максим Климко | 4003

517 | Никита Бородач | 3714

518 | Владислав Коваленко | 3739

519 | Максим Череззаборногузадирайко | 4816

520 | Артем Моряк | 3950

521 | Кирилл Иванов | 4483

522 | Герасим Тарасов | 3376

523 | Иннокентий Бородач | 4524

524 | Егор Менделеев | 4612

525 | Максим Перекатиполе | 4230

526 | Петр Моряк | 4813

527 | Василий Шевченко | 4006

528 | Сергей Тарасов | 4891

529 | Сергей Бочаров | 4366

530 | Ярослав Романов | 4320

531 | Никита Гусько | 4725

532 | Никита Коноплянко | 3449

533 | Ярослав Гусько | 3328

534 | Владислав Коваленко | 4638

535 | Петр Шевченко | 3237

536 | Владислав Погонирук | 4203

537 | Петр Атанасов | 4050

538 | Дмитрий Моряк | 4542

539 | Иннокентий Шевченко | 3226

540 | Герасим Гусько | 4291

541 | Кирилл Моряк | 4329

542 | Андрей Менделеев | 3483

543 | Иннокентий Бочаров | 4238

544 | Артем Камашня | 4090

545 | Петр Менделеев | 3101

546 | Иван Гусько | 4246

547 | Никита Менделеев | 4839

548 | Андрей Резник | 4465

549 | Антон Пулько | 3827

550 | Андрей Тарасов | 4455

551 | Андрей Резник | 3064

552 | Кирилл Моряк | 3368

553 | Антон Череззаборногузадирайко | 4070

554 | Никита Череззаборногузадирайко | 3124

555 | Иннокентий Погонирук | 4330

556 | Иннокентий Шевченко | 3723

557 | Петр Шевченко | 4439

558 | Кирилл Коноплянко | 4614

559 | Петр Калина | 4815

560 | Ярослав Коноплянко | 4792

561 | Никита Бородач | 3833

562 | Ярослав Шевченко | 4325

563 | Кирилл Коваленко | 4301

564 | Никита Гусько | 4793

565 | Андрей Коноплянко | 3200

566 | Никита Моряк | 4559

567 | Андрей Романов | 4177

568 | Дмитрий Погонирук | 4230

569 | Дмитрий Череззаборногузадирайко | 3332

570 | Максим Камашня | 4313

571 | Сергей Коваленко | 4339

572 | Егор Иванов | 4511

573 | Егор Моряк | 3172

574 | Дмитрий Атанасов | 3069

575 | Петр Бородач | 4518

576 | Герасим Калина | 3036

577 | Петр Бородач | 3650

578 | Антон Бородач | 4623

579 | Василий Камашня | 3959

580 | Герасим Бородач | 4311

581 | Кирилл Шевченко | 3863

582 | Иннокентий Перекатиполе | 3613

583 | Максим Калина | 4802

584 | Василий Коваленко | 3014

585 | Иван Моряк | 4377

586 | Владислав Бочаров | 4035

587 | Никита Романов | 3441

588 | Антон Гусько | 4848

589 | Василий Резник | 3715

590 | Никита Бочаров | 3546

591 | Сергей Пулько | 3415

592 | Геннадий Гусько | 3356

593 | Егор Менделеев | 3526

594 | Геннадий Перекатиполе | 4905

595 | Андрей Погонирук | 4313

596 | Василий Калина | 4598

597 | Антон Камашня | 3869

598 | Иннокентий Тарасов | 4397

599 | Геннадий Бочаров | 4541

600 | Кирилл Климко | 3883

601 | Иннокентий Погонирук | 3234

602 | Егор Моряк | 3734

603 | Герасим Шевченко | 4117

604 | Кирилл Коноплянко | 4248

605 | Сергей Калина | 4177

606 | Сергей Иванов | 3309

607 | Сергей Иванов | 4427

608 | Владислав Менделеев | 4157

609 | Никита Бочаров | 4798

610 | Кирилл Коноплянко | 3316

611 | Артем Моряк | 3108

612 | Герасим Гусько | 3455

613 | Никита Атанасов | 3589

614 | Сергей Гусько | 3342

615 | Сергей Череззаборногузадирайко | 4603

616 | Герасим Менделеев | 4083

617 | Андрей Романов | 3635

618 | Егор Коваленко | 4297

619 | Петр Погонирук | 4266

620 | Владислав Камашня | 4508

621 | Геннадий Шевченко | 3535

622 | Артем Резник | 4712

623 | Владислав Калина | 4798

624 | Артем Калина | 4083

625 | Никита Коноплянко | 3991

626 | Владислав Бочаров | 3247

627 | Герасим Иванов | 4212

628 | Артем Погонирук | 4657

629 | Никита Камашня | 4710

630 | Артем Моряк | 3227

631 | Егор Шевченко | 4398

632 | Владислав Пулько | 3454

633 | Ярослав Пулько | 4017

634 | Иннокентий Коваленко | 3549

635 | Егор Менделеев | 4467

636 | Герасим Камашня | 3523

637 | Антон Романов | 3145

638 | Кирилл Камашня | 4523

639 | Антон Резник | 4784

640 | Геннадий Перекатиполе | 3622

641 | Дмитрий Романов | 3678

642 | Герасим Камашня | 3272

643 | Никита Бочаров | 3312

644 | Сергей Череззаборногузадирайко | 3955

645 | Егор Пулько | 4574

646 | Василий Менделеев | 4298

647 | Андрей Моряк | 3072

648 | Егор Шевченко | 4815

649 | Дмитрий Моряк | 4070

650 | Ярослав Погонирук | 4424

651 | Василий Атанасов | 3559

652 | Максим Тарасов | 3153

653 | Ярослав Бородач | 4965

654 | Егор Тарасов | 3872

655 | Андрей Бородач | 4094

656 | Егор Бородач | 4859

657 | Иннокентий Пулько | 3789

658 | Сергей Бочаров | 3992

659 | Сергей Калина | 4823

660 | Геннадий Менделеев | 4363

661 | Егор Тарасов | 4854

662 | Геннадий Тарасов | 3346

663 | Максим Калина | 4776

664 | Петр Погонирук | 4716

665 | Иван Атанасов | 3260

666 | Егор Атанасов | 3735

667 | Артем Калина | 3380

668 | Егор Коноплянко | 4152

669 | Василий Моряк | 3242

670 | Герасим Тарасов | 4071

671 | Антон Гусько | 3223

672 | Василий Коноплянко | 3059

673 | Кирилл Климко | 4901

674 | Артем Погонирук | 3954

675 | Дмитрий Шевченко | 3841

676 | Владислав Перекатиполе | 4693

677 | Артем Климко | 4841

678 | Владислав Моряк | 3598

679 | Кирилл Коноплянко | 4881

680 | Василий Резник | 4683

681 | Дмитрий Калина | 3990

682 | Василий Гусько | 4781

683 | Петр Погонирук | 4000

684 | Андрей Моряк | 4650

685 | Геннадий Коноплянко | 3096

686 | Петр Перекатиполе | 4399

687 | Антон Камашня | 4031

688 | Сергей Калина | 3493

689 | Егор Череззаборногузадирайко | 3868

690 | Герасим Пулько | 3002

691 | Андрей Романов | 4070

692 | Андрей Бочаров | 4967

693 | Иннокентий Климко | 4435

694 | Владислав Камашня | 3421

695 | Василий Шевченко | 4168

696 | Андрей Резник | 3167

697 | Сергей Камашня | 3865

698 | Сергей Романов | 3692

699 | Василий Камашня | 4990

700 | Сергей Менделеев | 4850

701 | Геннадий Тарасов | 4111

702 | Кирилл Иванов | 4865

703 | Сергей Бочаров | 4329

704 | Андрей Менделеев | 4747

705 | Иннокентий Череззаборногузадирайко | 4981

706 | Василий Тарасов | 3305

707 | Иван Гусько | 3986

708 | Василий Перекатиполе | 3062

709 | Владислав Пулько | 4926

710 | Максим Камашня | 4088

711 | Иннокентий Менделеев | 4903

712 | Герасим Моряк | 4711

713 | Иван Пулько | 3506

714 | Иван Пулько | 4639

715 | Геннадий Романов | 3096

716 | Владислав Шевченко | 4138

717 | Артем Иванов | 4699

718 | Никита Перекатиполе | 3436

719 | Геннадий Резник | 3744

720 | Кирилл Тарасов | 3329

721 | Иннокентий Резник | 4049

722 | Антон Моряк | 4993

723 | Ярослав Романов | 4105

724 | Антон Климко | 3159

725 | Ярослав Иванов | 4428

726 | Иван Тарасов | 3750

727 | Иннокентий Иванов | 4175

728 | Артем Пулько | 4523

729 | Иван Резник | 3296

730 | Петр Погонирук | 4933

731 | Кирилл Резник | 4834

732 | Андрей Климко | 4407

733 | Василий Шевченко | 3221

734 | Дмитрий Череззаборногузадирайко | 3140

735 | Дмитрий Коваленко | 3741

736 | Герасим Тарасов | 4148

737 | Кирилл Камашня | 3349

738 | Иннокентий Гусько | 4840

739 | Владислав Перекатиполе | 3535

740 | Петр Калина | 4860

741 | Никита Романов | 4656

742 | Владислав Климко | 4040

743 | Антон Пулько | 3659

744 | Дмитрий Погонирук | 4264

745 | Сергей Тарасов | 3745

746 | Кирилл Погонирук | 4226

747 | Артем Тарасов | 3405

748 | Владислав Коваленко | 4206

749 | Герасим Атанасов | 4176

750 | Иннокентий Гусько | 3212

751 | Геннадий Гусько | 4746

752 | Максим Коваленко | 3897

753 | Сергей Калина | 4138

754 | Никита Череззаборногузадирайко | 3264

755 | Сергей Атанасов | 3758

756 | Владислав Менделеев | 4219

757 | Владислав Моряк | 3395

758 | Иван Погонирук | 4003

759 | Петр Шевченко | 4918

760 | Максим Камашня | 3327

761 | Ярослав Романов | 3597

762 | Максим Перекатиполе | 4693

763 | Петр Моряк | 4459

764 | Ярослав Шевченко | 4895

765 | Дмитрий Гусько | 3633

766 | Андрей Бочаров | 4469

767 | Максим Коваленко | 4510

768 | Иннокентий Калина | 3906

769 | Ярослав Камашня | 3319

770 | Артем Атанасов | 4854

771 | Кирилл Иванов | 4272

772 | Артем Тарасов | 3884

773 | Никита Иванов | 4840

774 | Владислав Камашня | 4294

775 | Никита Череззаборногузадирайко | 4565

776 | Сергей Череззаборногузадирайко | 4662

777 | Максим Климко | 4891

778 | Максим Иванов | 4089

779 | Артем Коноплянко | 4431

780 | Никита Бочаров | 4585

781 | Иван Погонирук | 4262

782 | Герасим Калина | 3518

783 | Василий Череззаборногузадирайко | 4245

784 | Никита Коваленко | 3617

785 | Герасим Климко | 3929

786 | Андрей Моряк | 4652

787 | Иван Климко | 3340

788 | Василий Романов | 4594

789 | Иннокентий Шевченко | 3030

790 | Андрей Коноплянко | 4927

791 | Петр Коноплянко | 4411

792 | Антон Пулько | 3794

793 | Дмитрий Моряк | 3377

794 | Кирилл Тарасов | 4945

795 | Максим Бочаров | 3836

796 | Егор Калина | 3618

797 | Андрей Бочаров | 4712

798 | Ярослав Романов | 4314

799 | Егор Погонирук | 3399

800 | Никита Пулько | 3338

801 | Сергей Коваленко | 4282

802 | Иван Резник | 3500

803 | Егор Климко | 4693

804 | Андрей Моряк | 3039

805 | Егор Резник | 4438

806 | Максим Резник | 4753

807 | Артем Бочаров | 4712

808 | Иван Иванов | 4392

809 | Андрей Пулько | 4625

810 | Дмитрий Гусько | 3973

811 | Максим Романов | 3513

812 | Дмитрий Шевченко | 4437

813 | Василий Гусько | 3324

814 | Антон Иванов | 4443

815 | Геннадий Иванов | 3418

816 | Никита Шевченко | 3056

817 | Ярослав Калина | 3476

818 | Василий Атанасов | 3952

819 | Василий Гусько | 3417

820 | Иннокентий Перекатиполе | 3622

821 | Геннадий Перекатиполе | 3365

822 | Артем Бородач | 4819

823 | Петр Череззаборногузадирайко | 4734

824 | Дмитрий Бородач | 4141

825 | Петр Коваленко | 3620

826 | Антон Коваленко | 4998

827 | Кирилл Шевченко | 4169

828 | Герасим Резник | 3159

829 | Сергей Бородач | 4452

830 | Герасим Менделеев | 4483

831 | Кирилл Погонирук | 4995

832 | Никита Менделеев | 3959

833 | Владислав Резник | 3283

834 | Василий Моряк | 4269

835 | Антон Тарасов | 4118

836 | Иван Череззаборногузадирайко | 3491

837 | Антон Романов | 3590

838 | Максим Атанасов | 3561

839 | Петр Климко | 3888

840 | Андрей Резник | 4991

841 | Максим Коноплянко | 4820

842 | Антон Атанасов | 3959

843 | Владислав Бородач | 3958

844 | Никита Перекатиполе | 3280

845 | Никита Романов | 3395

846 | Иннокентий Череззаборногузадирайко | 3345

847 | Кирилл Перекатиполе | 3532

848 | Кирилл Череззаборногузадирайко | 4058

849 | Геннадий Бочаров | 4856

850 | Петр Резник | 3155

851 | Дмитрий Калина | 4983

852 | Антон Резник | 3182

853 | Петр Иванов | 3895

854 | Андрей Моряк | 4488

855 | Герасим Бочаров | 4164

856 | Антон Погонирук | 3540

857 | Андрей Камашня | 3061

858 | Сергей Перекатиполе | 4060

859 | Петр Менделеев | 3734

860 | Артем Климко | 3379

861 | Владислав Бородач | 4480

862 | Артем Камашня | 3319

863 | Антон Менделеев | 3143

864 | Андрей Коваленко | 4173

865 | Петр Калина | 3973

866 | Кирилл Менделеев | 3558

867 | Иннокентий Шевченко | 4896

868 | Иван Череззаборногузадирайко | 3693

869 | Дмитрий Камашня | 4708

870 | Геннадий Калина | 3826

871 | Петр Бочаров | 3713

872 | Сергей Гусько | 3478

873 | Дмитрий Погонирук | 4080

874 | Геннадий Иванов | 4282

875 | Максим Коноплянко | 4102

876 | Геннадий Гусько | 3280

877 | Дмитрий Коваленко | 4976

878 | Андрей Калина | 3775

879 | Сергей Бородач | 3442

880 | Артем Погонирук | 3062

881 | Василий Климко | 3589

882 | Иван Погонирук | 4765

883 | Максим Атанасов | 4826

884 | Сергей Гусько | 3698

885 | Петр Гусько | 3569

886 | Василий Атанасов | 4315

887 | Герасим Череззаборногузадирайко | 3434

888 | Петр Калина | 3417

889 | Геннадий Череззаборногузадирайко | 4817

890 | Иннокентий Иванов | 4268

891 | Дмитрий Череззаборногузадирайко | 3022

892 | Кирилл Резник | 3639

893 | Василий Гусько | 4188

894 | Иван Коваленко | 3159

895 | Максим Камашня | 4378

896 | Егор Бочаров | 4819

897 | Андрей Тарасов | 3868

898 | Владислав Перекатиполе | 4501

899 | Герасим Перекатиполе | 3537

900 | Андрей Коваленко | 4493

901 | Иннокентий Шевченко | 3900

902 | Сергей Коваленко | 4815

903 | Василий Коваленко | 3814

904 | Иннокентий Коноплянко | 4839

905 | Андрей Резник | 3780

906 | Антон Атанасов | 4243

907 | Кирилл Камашня | 3574

908 | Иннокентий Бородач | 3164

909 | Максим Атанасов | 3025

910 | Сергей Климко | 4051

911 | Дмитрий Шевченко | 3611

912 | Никита Климко | 4904

913 | Егор Тарасов | 4134

914 | Герасим Бочаров | 3237

915 | Кирилл Резник | 4948

916 | Кирилл Гусько | 3942

917 | Артем Климко | 3208

918 | Иван Перекатиполе | 3896

919 | Геннадий Коноплянко | 3789

920 | Артем Моряк | 4548

921 | Ярослав Моряк | 4069

922 | Никита Тарасов | 4399

923 | Егор Коваленко | 3863

924 | Геннадий Гусько | 4077

925 | Дмитрий Менделеев | 3968

926 | Антон Атанасов | 4457

927 | Андрей Климко | 4909

928 | Владислав Тарасов | 3038

929 | Геннадий Калина | 4387

930 | Никита Погонирук | 4438

931 | Владислав Шевченко | 4738

932 | Герасим Бородач | 3447

933 | Владислав Череззаборногузадирайко | 3446

934 | Сергей Тарасов | 3568

935 | Дмитрий Тарасов | 3335

936 | Владислав Перекатиполе | 4656

937 | Иннокентий Шевченко | 3959

938 | Иван Шевченко | 3786

939 | Герасим Погонирук | 3354

940 | Кирилл Атанасов | 4021

941 | Дмитрий Камашня | 4656

942 | Петр Бородач | 3492

943 | Иван Шевченко | 4704

944 | Сергей Перекатиполе | 4748

945 | Кирилл Пулько | 4570

946 | Иван Гусько | 4955

947 | Никита Бородач | 4621

948 | Никита Бородач | 3193

949 | Сергей Бородач | 3004

950 | Кирилл Коноплянко | 4064

951 | Дмитрий Моряк | 3324

952 | Петр Шевченко | 3286

953 | Геннадий Бочаров | 3082

954 | Ярослав Бородач | 3663

955 | Иннокентий Менделеев | 4412

956 | Егор Романов | 3851

957 | Егор Резник | 4703

958 | Максим Климко | 4206

959 | Иван Резник | 4728

960 | Петр Атанасов | 4980

961 | Сергей Романов | 3574

962 | Василий Коваленко | 4033

963 | Петр Камашня | 4130

964 | Егор Коваленко | 3350

965 | Ярослав Тарасов | 4920

966 | Кирилл Бородач | 3377

967 | Артем Череззаборногузадирайко | 4459

968 | Владислав Бородач | 4650

969 | Иван Пулько | 3808

970 | Владислав Иванов | 3256

971 | Сергей Менделеев | 4707

972 | Дмитрий Климко | 4403

973 | Дмитрий Климко | 3980

974 | Максим Бородач | 3737

975 | Никита Коноплянко | 4867

976 | Иван Шевченко | 4468

977 | Егор Коваленко | 3501

978 | Иван Бочаров | 4677

979 | Сергей Климко | 3653

980 | Геннадий Череззаборногузадирайко | 3734

981 | Андрей Романов | 4558

982 | Геннадий Погонирук | 3980

983 | Василий Бородач | 3505

984 | Сергей Калина | 3467

985 | Иван Коваленко | 4481

986 | Артем Менделеев | 4802

987 | Ярослав Иванов | 4167

988 | Иван Тарасов | 4585

989 | Никита Череззаборногузадирайко | 3767

990 | Дмитрий Камашня | 3018

991 | Артем Перекатиполе | 3031

992 | Антон Моряк | 4479

993 | Егор Калина | 4207

994 | Геннадий Погонирук | 3754

995 | Кирилл Погонирук | 4572

996 | Дмитрий Коноплянко | 3280

997 | Андрей Бородач | 4903

998 | Геннадий Перекатиполе | 4273

999 | Герасим Калина | 3475

